<?xml version="1.0" encoding="UTF-8" standalone="no"?>
<svg
   xmlns:dc="http://purl.org/dc/elements/1.1/"
   xmlns:cc="http://creativecommons.org/ns#"
   xmlns:rdf="http://www.w3.org/1999/02/22-rdf-syntax-ns#"
   xmlns:svg="http://www.w3.org/2000/svg"
   xmlns="http://www.w3.org/2000/svg"
   xmlns:sodipodi="http://sodipodi.sourceforge.net/DTD/sodipodi-0.dtd"
   xmlns:inkscape="http://www.inkscape.org/namespaces/inkscape"
   width="210mm"
   height="297mm"
   viewBox="0 0 210 297"
   version="1.1"
   id="svg8"
   inkscape:version="1.0.2-2 (e86c870879, 2021-01-15)"
   sodipodi:docname="aurori_icon.inkscape.svg">
  <defs
     id="defs2" />
  <sodipodi:namedview
     id="base"
     pagecolor="#666666"
     bordercolor="#323232"
     borderopacity="1"
     inkscape:pageopacity="0"
     inkscape:pageshadow="2"
     inkscape:zoom="1.4"
     inkscape:cx="56.168709"
     inkscape:cy="35.790486"
     inkscape:document-units="mm"
     inkscape:current-layer="layer1"
     inkscape:document-rotation="0"
     showgrid="false"
     inkscape:window-width="1920"
     inkscape:window-height="1017"
     inkscape:window-x="-8"
     inkscape:window-y="-8"
     inkscape:window-maximized="1" />
  <metadata
     id="metadata5">
    <rdf:RDF>
      <cc:Work
         rdf:about="">
        <dc:format>image/svg+xml</dc:format>
        <dc:type
           rdf:resource="http://purl.org/dc/dcmitype/StillImage" />
        <dc:title></dc:title>
      </cc:Work>
    </rdf:RDF>
  </metadata>
  <g
     inkscape:label="Ebene 1"
     inkscape:groupmode="layer"
     id="layer1">
    <path
       id="path2750"
       style="fill:none;stroke:#ffffff;stroke-width:6;stroke-linejoin:round;stroke-opacity:1;paint-order:fill markers stroke"
       d="m -15.8291,4.1906473 c 0,-8.7936944 7.0873151,-15.9223913 15.82995781573,-15.9223913 C 8.7435035,-11.731744 15.830818,-4.6030491 15.830818,4.1906473"
       sodipodi:nodetypes="csc"
       inkscape:export-filename=""
       inkscape:export-xdpi="300"
       inkscape:export-ydpi="300" />
    <path
       id="path2750-9"
       style="fill:none;stroke:#ffffff;stroke-width:6;stroke-linejoin:round;stroke-opacity:1;paint-order:fill markers stroke"
       d="m -15.829736,20.951061 c 0,-8.794048 7.0873091,-15.923035 15.82994751573,-15.923035 C 8.7428656,5.028026 15.830182,12.157011 15.830182,20.951061"
       sodipodi:nodetypes="csc"
       inkscape:export-filename=""
       inkscape:export-xdpi="300"
       inkscape:export-ydpi="300" />
    <path
       id="path2775"
       style="fill:none;stroke:#ffffff;stroke-width:6;stroke-linecap:square;stroke-linejoin:miter;stroke-opacity:1"
       d="M 15.830325,5.0291616 15.816516,28.493247 H -15.8291 V 5.0291616"
       sodipodi:nodetypes="cccc"
       inkscape:export-filename=""
       inkscape:export-xdpi="300"
       inkscape:export-ydpi="300" />
    <path
       id="path2815"
       style="fill:none;stroke:#ffffff;stroke-width:6;stroke-linejoin:round;stroke-opacity:1;paint-order:fill markers stroke"
       d="M -0.11624908,-28.493193 A 32.493073,32.682809 0 0 0 -32.493245,4.1897789 32.493073,32.682809 0 0 0 -21.724448,28.493063 H 21.724445 A 32.493073,32.682809 0 0 0 32.493241,4.1897789 32.493073,32.682809 0 0 0 -1.6842673e-6,-28.493193 a 32.493073,32.682809 0 0 0 -0.1162473957327,0 z"
       inkscape:export-filename=""
       inkscape:export-xdpi="300"
       inkscape:export-ydpi="300" />
    <text
       xml:space="preserve"
       style="font-style:italic;font-variant:normal;font-weight:normal;font-stretch:normal;font-size:7.05556px;line-height:1.25;font-family:Montserrat;-inkscape-font-specification:'Montserrat Italic';letter-spacing:0px;stroke:#ffffff;stroke-width:0.264583;stroke-opacity:1"
       x="30.602362"
       y="-3.4745038"
       id="text844"><tspan
         sodipodi:role="line"
         id="tspan842"
         x="30.602362"
         y="-3.4745038"
         style="font-style:italic;font-variant:normal;font-weight:normal;font-stretch:normal;font-family:Montserrat;-inkscape-font-specification:'Montserrat Italic';stroke:#ffffff;stroke-width:0.264583;stroke-opacity:1" /></text>
  </g>
</svg>
